X,Y
0,13.867
1,13.967
2,14.367
3,14.533
4,14.433
5,14.433
6,14.600
7,14.333
8,14.767
9,15.667
10,17.233
11,19.867
12,24.333
13,29.933
14,36.033
15,40.233
16,41.700
17,40.500
18,37.667
19,33.533
20,29.400
21,25.367
22,22.233
23,19.933
24,18.233
25,16.767
26,15.733
27,15.167
28,14.433
29,13.733
30,13.533
31,13.367
32,13.600
33,13.867
34,13.933
35,14.033
36,14.367
37,14.833
38,14.933
39,15.433
40,16.167
41,16.500
42,17.233
43,17.933
44,18.533
45,19.200
46,19.600
47,19.600
48,19.633
49,18.567
50,17.933
51,16.833
52,16.000
53,15.200
54,14.867
55,14.767
56,15.033
57,15.100
58,15.467
59,15.667
60,16.333
61,17.033
62,18.167
63,19.633
64,22.500
65,27.667
66,38.967
67,61.533
68,102.267
69,130.667
70,151.600
71,166.333
72,176.867
73,182.267
74,185.767
75,187.733
76,189.267
77,188.433
78,185.633
79,179.100
80,170.233
81,160.567
82,151.100
83,141.900
84,132.733
85,122.400
86,107.267
87,81.333
88,56.900
89,39.400
90,30.100
91,25.700
92,24.467
93,24.500
94,24.367
95,24.000
96,24.433
97,23.967
98,21.800
99,19.200
100,19.500
101,21.100
102,22.333
103,23.067
104,23.667
105,24.867
106,25.700
107,25.700
108,24.600
109,23.667
110,21.933
111,21.333
112,21.733
113,23.167
114,25.033
115,28.633
116,31.767
117,35.033
118,39.067
119,43.867
120,51.600
121,61.433
122,78.300
123,100.300
124,129.333
125,148.133
126,163.467
127,178.067
128,194.633
129,209.000
130,214.933
131,215.667
132,213.167
133,210.133
134,210.767
135,212.733
136,213.700
137,214.000
138,212.967
139,210.700
140,208.833
141,206.633
142,205.400
143,207.300
144,206.933
145,192.933
146,179.033
147,167.867
148,147.233
149,113.067
150,77.800
151,89.433
152,109.367
153,111.967
154,104.067
155,89.033
156,59.433
157,40.733
158,41.433
159,56.500
160,64.800
161,54.800
162,42.667
163,36.500
164,41.933
165,45.600
166,45.033
167,39.000
168,32.733
169,28.933
170,27.633
171,29.500
172,30.467
173,26.400
174,25.933
175,32.400
176,35.433
177,26.867
178,21.033
179,21.900
180,23.933
181,23.700
182,23.100
183,26.833
184,32.333
185,43.533
186,66.200
187,106.100
188,137.133
189,157.867
190,171.633
191,181.233
192,187.967
193,190.867
194,192.000
195,192.467
196,191.067
197,188.033
198,183.267
199,176.933
200,170.000
201,159.833
202,149.000
203,134.667
204,118.867
205,91.267
206,53.900
207,31.133
208,21.200
209,18.933
210,20.733
211,24.033
212,25.367
213,23.367
214,19.400
215,17.267
216,17.400
217,17.733
218,16.767
219,16.467
220,16.167
221,15.367
222,15.800
223,15.933
224,16.533
225,16.733
226,16.900
227,17.100
228,16.967
229,17.667
230,17.867
231,17.900
232,17.600
233,17.833
234,17.767
235,18.267
236,17.767
237,16.800
238,16.767
239,16.567
240,16.033
241,15.400
242,15.733
243,15.267
244,15.367
245,15.433
246,16.100
247,17.367
248,18.900
249,23.267
250,28.400
251,34.700
252,43.000
253,46.800
254,51.333
255,48.700
256,46.033
257,37.967
258,35.267
259,28.533
260,26.567
261,21.067
262,19.467
263,16.467
264,15.833
265,14.700
266,14.300
267,14.133
268,13.767
269,13.767
270,14.133
271,14.767
272,14.467
