X,Y
0,6.8340
1,6.9268
2,6.9316
3,6.8486
4,6.8809
5,6.7793
6,6.8584
7,6.8916
8,6.9648
9,6.9717
10,7.0586
11,7.1113
12,7.1992
13,7.3086
14,7.5068
15,7.5068
16,7.6963
17,7.6963
18,7.8809
19,7.9238
20,8.1719
21,8.2568
22,8.4307
23,8.4209
24,8.5801
25,8.6338
26,8.8135
27,8.8379
28,8.9844
29,8.8594
30,8.9502
31,8.8643
32,8.8760
33,8.8799
34,8.8018
35,8.7422
36,8.7314
37,8.5889
38,8.5225
39,8.4482
40,8.3623
41,8.2090
42,8.2227
43,8.2109
44,8.1592
45,8.1641
46,8.0850
47,8.0127
48,7.9912
49,7.9434
50,7.9561
51,7.9922
52,8.0645
53,8.1768
54,8.1719
55,8.2285
56,8.4404
57,8.5000
58,8.5703
59,8.7119
60,8.9629
61,9.1055
62,9.2998
63,9.4072
64,9.7402
65,9.9443
66,10.1143
67,10.2803
68,10.4600
69,10.6895
70,10.8311
71,10.8721
72,10.9512
73,11.0293
74,11.1367
75,11.1572
76,11.1582
77,11.1367
78,11.1660
79,11.1602
80,11.1152
81,10.9219
82,10.8818
83,10.8350
84,10.7090
85,10.6611
86,10.5137
87,10.3291
88,10.1064
89,9.8760
90,9.8203
91,9.7637
92,9.7539
93,9.5801
94,9.6855
95,9.6357
96,9.7617
97,9.6650
98,9.6914
99,9.7129
100,9.8955
101,9.9922
102,10.1660
103,10.3047
104,10.4434
105,10.5957
106,10.8115
107,10.8896
108,11.1650
109,11.5322
110,11.7080
111,11.9854
112,12.3721
113,12.6035
114,13.0215
115,13.2344
116,13.4854
117,13.6602
118,13.8135
119,13.9580
120,14.1758
121,14.0996
122,14.1875
123,14.1475
124,14.1348
125,13.9854
126,13.9219
127,13.7178
128,13.6562
129,13.4258
130,13.3682
131,13.1367
132,13.0176
133,12.8076
134,12.7051
135,12.4277
136,12.3857
137,12.1318
138,12.0107
139,11.9111
140,11.9209
141,11.9229
142,11.8184
143,11.7637
144,11.8574
145,11.8838
146,11.8320
147,12.0176
148,12.1494
149,12.3301
150,12.4766
151,12.7725
152,12.8838
153,13.0898
154,13.4502
155,13.7295
156,14.2051
157,14.6309
158,15.1406
159,15.4658
160,15.8359
161,16.1963
162,16.5732
163,16.7969
164,17.1592
165,17.3535
166,17.5186
167,17.6680
168,17.7412
169,17.7744
170,17.6113
171,17.5518
172,17.3857
173,17.1172
174,17.0186
175,16.7676
176,16.6016
177,16.1943
178,16.0088
179,15.6348
180,15.3730
181,15.1738
182,15.0137
183,14.7627
184,14.7627
185,14.5449
186,14.3994
187,14.3057
188,14.1973
189,14.2988
190,14.3428
191,14.4434
192,14.5322
193,14.7842
194,14.9434
195,15.2070
196,15.4375
197,15.6670
198,15.8945
199,16.3369
200,16.8389
201,17.3213
202,17.6211
203,18.1455
204,18.7900
205,19.1260
206,19.8438
207,20.0977
208,20.4932
209,20.8896
210,21.2061
211,21.4521
212,21.8691
213,21.8486
214,22.0898
215,21.9814
216,21.8623
217,21.8154
218,21.7627
219,21.6162
220,21.5195
221,21.0117
222,20.7070
223,20.2217
224,19.8467
225,19.2812
226,19.1064
227,18.8125
228,18.5010
229,17.9590
230,17.7998
231,17.5967
232,17.5146
233,17.3682
234,17.2949
235,17.1836
236,17.2598
237,17.3594
238,17.3877
239,17.6738
240,17.9551
241,18.3477
242,18.6182
243,18.9092
244,19.4150
245,19.5205
246,20.1914
247,20.7383
248,21.3369
249,22.0879
250,22.9492
251,23.5801
252,24.3516
253,25.0420
254,25.6377
255,26.1318
256,26.7305
257,27.2344
258,27.8652
259,27.7568
260,28.0107
261,27.9951
262,27.9688
263,27.6719
264,27.7070
265,27.4453
266,26.9902
267,26.3760
268,26.1738
269,25.6582
270,25.1182
271,24.3828
272,24.0732
273,23.5781
274,23.1221
275,22.5205
276,22.4248
277,21.9424
278,21.4570
279,21.2002
280,21.0957
281,21.1436
282,21.0127
283,21.0361
284,21.2490
285,21.3252
286,21.6553
287,22.0410
288,22.5840
289,23.0234
290,23.6514
291,24.1406
292,24.7090
293,25.2344
294,25.9014
295,26.9404
296,28.0088
297,28.7109
298,29.4336
299,30.0693
300,31.0469
301,31.4248
302,32.3350
303,32.9697
304,33.9248
305,34.2607
306,34.4072
307,34.1045
308,34.1426
309,34.0879
310,34.0928
311,33.6250
312,33.6592
313,33.1670
314,32.6875
315,31.8428
316,31.0576
317,30.3467
318,29.6846
319,28.9717
320,28.5371
321,27.9756
322,27.4746
323,26.9990
324,26.7266
325,25.9277
326,25.7715
327,25.3408
328,25.3701
329,25.3848
330,25.7793
331,25.8750
332,26.3174
333,26.7334
334,27.2197
335,27.4297
336,28.1006
337,28.6953
338,29.4316
339,30.3584
340,31.1660
341,31.9033
342,33.0938
343,34.1133
344,35.2656
345,36.2432
346,37.0566
347,37.9082
348,39.3867
349,40.3926
350,41.0078
351,41.4609
352,41.5918
353,41.3975
354,41.6475
355,41.6660
356,41.7031
357,41.2158
358,40.8037
359,40.0674
360,39.3369
361,38.1553
362,37.6992
363,36.7236
364,35.8916
365,34.9375
366,34.2002
367,33.1885
368,32.3750
369,31.7793
370,31.3623
371,30.6162
372,30.2529
373,29.8662
374,29.7900
375,29.4902
376,29.7002
377,29.9893
378,30.2500
379,30.4434
380,30.7344
381,31.2744
382,31.9580
383,32.8574
384,33.3652
385,34.4775
386,35.7471
387,36.7578
388,38.0566
389,38.9580
390,40.3789
391,41.5000
392,42.6777
393,43.8633
394,44.6758
395,45.7178
396,46.3984
397,47.4922
398,47.8828
399,48.3633
400,48.8037
401,48.8701
402,48.6758
403,48.1426
404,47.9424
405,47.2998
406,46.6250
407,45.5078
408,44.7344
409,43.5059
410,42.6348
411,41.5840
412,40.7236
413,39.6211
414,38.6680
415,37.6152
416,37.0342
417,36.2617
418,35.5508
419,35.1045
420,35.0273
421,34.8662
422,34.7139
423,34.6182
424,34.6934
425,34.7305
426,35.2188
427,35.9736
428,36.7637
429,37.1572
430,38.0771
431,38.7510
432,40.0254
433,41.0977
434,42.4805
435,43.5957
436,45.1641
437,46.2061
438,47.8213
439,48.7266
440,49.6123
441,50.5908
442,51.5674
443,52.1602
444,52.8320
445,53.6758
446,54.3125
447,54.5703
448,54.3594
449,53.8477
450,53.5566
451,52.7627
452,51.7236
453,50.4971
454,49.6904
455,48.3213
456,47.0518
457,46.0049
458,44.7773
459,43.9121
460,43.1211
461,42.3203
462,41.6318
463,41.2920
464,40.7715
465,39.5869
466,39.1426
467,38.7549
468,38.9873
469,38.5342
470,38.2773
471,38.2168
472,38.7441
473,38.9580
474,39.5615
475,40.2285
476,41.3027
477,41.9023
478,43.2666
479,44.3340
480,46.1240
481,47.1562
482,48.8916
483,50.2305
484,51.9209
485,53.8008
486,54.8623
487,56.2148
488,56.9238
489,57.6514
490,59.1074
491,59.6895
492,60.1211
493,59.9473
494,59.8535
495,59.0703
496,58.3379
497,57.1240
498,56.8232
499,55.2080
500,54.7354
501,53.0410
502,51.9609
503,50.2822
504,49.5811
505,48.5068
506,47.5801
507,46.0898
508,45.2100
509,44.1816
510,43.4219
511,42.5020
512,42.4863
513,41.9893
514,41.9229
515,41.4375
516,41.2051
517,40.9678
518,41.3330
519,41.8779
520,42.6982
521,43.3701
522,44.6182
523,45.0156
524,46.0703
525,47.0791
526,48.4502
527,49.8213
528,51.6631
529,53.3164
530,54.9268
531,56.5098
532,57.7559
533,58.6621
534,59.5098
535,60.8926
536,62.1719
537,62.8369
538,62.8926
539,63.1318
540,62.6475
541,61.9268
542,61.5762
543,60.7051
544,60.1289
545,58.2490
546,57.3711
547,55.6143
548,54.3906
549,52.4365
550,51.2090
551,49.5127
552,48.2686
553,46.9883
554,46.1211
555,44.9512
556,44.2891
557,42.8740
558,42.3389
559,41.5830
560,41.5049
561,41.2197
562,40.9814
563,41.0879
564,41.5693
565,41.9102
566,42.5430
567,42.8057
568,43.9326
569,45.0127
570,45.7178
571,46.7842
572,47.8076
573,49.4336
574,50.9297
575,52.5371
576,54.2900
577,55.7383
578,56.9814
579,57.4268
580,58.6855
581,59.6172
582,60.6572
583,61.6240
584,62.1406
585,61.8125
586,61.6279
587,60.8867
588,60.6074
589,59.5137
590,58.6475
591,57.7109
592,56.2344
593,55.1660
594,53.7451
595,52.1406
596,51.0010
597,49.0801
598,47.7627
599,46.5146
600,45.5518
601,44.2959
602,43.3457
603,42.3750
604,41.6484
605,40.5137
606,40.2246
607,40.0840
608,40.3818
609,40.4033
610,40.3379
611,40.1602
612,40.5723
613,40.9775
614,41.3984
615,42.4893
616,43.6133
617,44.8955
618,45.7949
619,46.4375
620,47.9932
621,49.7334
622,51.2812
623,52.3623
624,53.8623
625,55.3164
626,56.7090
627,57.0713
628,58.0508
629,58.3496
630,58.7832
631,59.1621
632,59.4238
633,58.8271
634,58.1943
635,57.1680
636,56.2744
637,54.8701
638,53.8652
639,51.9639
640,50.9170
641,49.4150
642,48.3418
643,46.4902
644,45.6348
645,44.1309
646,43.1709
647,41.9023
648,40.4434
649,39.5508
650,38.9414
651,38.1436
652,37.5918
653,37.3936
654,37.3174
655,37.3135
656,37.2119
657,36.9756
658,37.6240
659,37.8447
660,38.5273
661,39.0254
662,39.6738
663,40.3193
664,41.0137
665,42.0137
666,43.4004
667,44.1855
668,45.4600
669,46.9160
670,48.2188
671,49.0293
672,49.9121
673,50.4688
674,51.4561
675,52.0625
676,53.0166
677,53.3945
678,53.6240
679,53.1133
680,52.6328
681,52.0420
682,51.7773
683,50.7852
684,50.0625
685,48.5273
686,47.2598
687,45.4170
688,44.5410
689,43.0088
690,41.8164
691,40.6318
692,39.3848
693,37.8711
694,37.0068
695,36.0400
696,35.4082
697,34.7314
698,34.5977
699,34.1367
700,33.8418
701,33.1523
702,33.2676
703,33.0713
704,33.4121
705,33.4863
706,33.7568
707,34.3828
708,35.0723
709,35.7900
710,36.4150
711,37.5859
712,38.3818
713,39.3398
714,40.7910
715,41.9346
716,42.6670
717,43.2686
718,44.1123
719,44.7275
720,45.4814
721,46.5107
722,47.2871
723,47.3506
724,47.4854
725,47.0459
726,46.9941
727,46.3877
728,46.1641
729,45.1025
730,44.3916
731,43.0312
732,42.5010
733,41.4473
734,40.4629
735,38.8213
736,37.5576
737,36.0537
738,34.9795
739,33.6982
740,33.1631
741,32.1143
742,31.5234
743,30.7051
744,30.2275
745,29.6992
746,29.2266
747,28.9219
748,29.1650
749,29.3047
750,29.2129
751,29.0361
752,29.6035
753,29.7539
754,30.2119
755,30.8652
756,31.4082
757,32.2539
758,32.7119
759,33.6982
760,34.5049
761,35.1572
762,36.1289
763,36.7510
764,37.7861
765,38.2490
766,39.0449
767,39.5986
768,40.4629
769,40.8486
770,41.4434
771,40.8809
772,40.9072
773,40.2148
774,39.4443
775,38.9365
776,38.1270
777,37.3447
778,36.6445
779,35.8047
780,34.9756
781,33.8877
782,32.5635
783,31.6904
784,30.8457
785,29.8945
786,29.1338
787,28.3076
788,27.5703
789,26.8643
790,26.3740
791,26.0312
792,25.8115
793,25.3242
794,25.4678
795,25.1621
796,25.3965
797,25.3623
798,25.5713
799,25.4268
800,25.9600
801,26.3213
802,27.0820
803,27.1445
804,27.7158
805,28.1387
806,28.9414
807,29.6328
808,30.4023
809,30.8682
810,31.3115
811,32.1035
812,32.8584
813,33.1006
814,33.5430
815,33.9453
816,34.2354
817,34.1191
818,34.1309
819,33.9004
820,33.5732
821,33.3711
822,32.6230
823,32.0908
824,31.1475
825,30.4639
826,29.6797
827,28.8115
828,28.1162
829,27.1338
830,26.2197
831,25.4834
832,24.7725
833,24.0898
834,23.3818
835,22.8467
836,22.2539
837,21.6240
838,21.3916
839,21.1484
840,20.9092
841,20.8418
842,20.7725
843,20.6699
844,20.8301
845,20.8906
846,21.2295
847,21.4434
848,21.8076
849,22.0234
850,22.4902
851,22.8721
852,23.5869
853,23.9424
854,24.4980
855,24.9326
856,25.6221
857,25.9902
858,26.3086
859,26.3955
860,26.8281
861,27.1338
862,27.3184
863,27.6172
864,27.4219
865,27.2725
866,26.9346
867,26.8760
868,26.1523
869,25.6699
870,25.1006
871,24.4961
872,23.9590
873,23.1934
874,22.5381
875,21.7227
876,21.2988
877,20.4658
878,19.7998
879,19.3652
880,18.7578
881,18.4170
882,18.0479
883,17.7031
884,17.5137
885,17.2246
886,17.1172
887,16.9111
888,16.8252
889,16.6748
890,16.7705
891,16.8574
892,17.0068
893,17.0557
894,17.3877
895,17.5469
896,17.8906
897,18.1152
898,18.4170
899,18.8027
900,19.1475
901,19.4121
902,19.7959
903,20.1855
904,20.5684
905,20.6621
906,21.1045
907,21.3750
908,21.4463
909,21.5459
910,21.5791
911,21.5381
912,21.3779
913,21.1807
914,20.9941
915,20.4072
916,20.1328
917,19.6172
918,19.0811
919,18.5381
920,18.2119
921,17.6963
922,17.1807
923,16.6836
924,16.2666
925,15.7529
926,15.1631
927,14.8223
928,14.7119
929,14.3164
930,14.2363
931,14.0127
932,13.7051
933,13.6045
934,13.4561
935,13.4639
936,13.4746
937,13.4180
938,13.6191
939,13.5459
940,13.5947
941,13.7021
942,13.8838
943,13.9531
944,14.3613
945,14.6836
946,14.9004
947,15.1768
948,15.4395
949,15.6260
950,15.8301
951,16.0293
952,16.2627
953,16.3994
954,16.5898
955,16.6152
956,16.6504
957,16.5879
958,16.3535
959,16.1807
960,16.1768
961,15.9678
962,15.7129
963,15.4082
964,15.0039
965,14.6514
966,14.1787
967,13.7256
968,13.4727
969,13.1523
970,12.8076
971,12.4502
972,12.1963
973,11.8584
974,11.5469
975,11.3613
976,11.1602
977,11.0146
978,10.9209
979,10.8301
980,10.8535
981,10.7725
982,10.7568
983,10.7012
984,10.8320
985,10.7012
986,10.7734
987,10.9268
988,11.0078
989,11.1221
990,11.2490
991,11.3584
992,11.5234
993,11.6689
994,11.8613
995,11.9453
996,12.1807
997,12.2715
998,12.4121
999,12.4766
1000,12.5371
1001,12.5527
1002,12.6465
1003,12.5713
1004,12.5303
1005,12.4688
1006,12.4277
1007,12.2295
1008,12.0449
1009,11.7969
1010,11.5684
1011,11.3232
1012,11.0918
1013,10.7695
1014,10.5732
1015,10.2549
1016,10.0781
1017,9.8682
1018,9.5918
1019,9.3945
1020,9.2588
1021,9.1924
1022,8.9453
1023,8.7959
1024,8.7676
1025,8.5928
1026,8.6494
1027,8.5967
1028,8.5928
1029,8.5645
1030,8.5928
1031,8.6396
1032,8.6436
1033,8.6758
1034,8.8086
1035,8.8418
1036,8.8975
1037,9.0293
1038,9.0449
1039,9.1836
1040,9.2891
1041,9.3086
1042,9.4834
1043,9.5693
1044,9.6631
1045,9.7246
1046,9.7178
1047,9.7256
1048,9.7646
1049,9.6592
1050,9.6865
1051,9.7119
1052,9.6602
1053,9.5029
1054,9.4102
1055,9.3467
1056,9.1855
1057,9.0137
1058,8.8711
1059,8.6396
1060,8.5615
1061,8.4219
1062,8.1914
1063,7.9902
1064,7.9600
1065,7.7949
1066,7.6738
1067,7.6182
1068,7.5420
1069,7.4414
1070,7.4268
1071,7.3027
1072,7.2773
1073,7.2432
1074,7.2627
1075,7.2100
1076,7.2051
1077,7.2676
1078,7.2891
1079,7.3086
1080,7.3213
1081,7.3799
1082,7.3682
1083,7.4346
1084,7.5049
1085,7.5596
1086,7.6357
1087,7.7549
1088,7.7998
1089,7.8916
1090,7.9473
1091,7.9297
1092,8.0146
1093,8.0254
1094,8.0391
1095,8.0771
1096,8.0527
1097,8.0195
1098,7.9473
1099,7.8994
1100,7.8398
1101,7.6650
1102,7.6143
1103,7.5986
1104,7.4717
